es/batoi/Dao/ProductoProveedorDAO.class
es/batoi/modelos/MailAlias.class
es/batoi/Dao/ClienteDAO.class
es/batoi/modelos/BatoiLogicPedidoprov.class
es/batoi/Dao/AlbaranDAO.class
es/batoi/Dao/ProductosDAO.class
es/batoi/Dao/CamionDAO.class
es/batoi/modelos/BatoiLogicRepartidor.class
es/batoi/MainApp.class
es/batoi/Dao/RepartidorDAO.class
es/batoi/modelos/CrmTeam.class
es/batoi/modelos/BatoiLogicPedido.class
es/batoi/modelos/BatoiLogicProveedor.class
es/batoi/controlador/LoginController.class
es/batoi/modelos/BatoiLogicProductoproveedor.class
es/batoi/modelos/ResPartnerTitle.class
es/batoi/Dao/GenericDAO.class
es/batoi/modelos/ResPartnerIndustry.class
es/batoi/Dao/ProveedorDAO.class
es/batoi/modelos/BatoiLogicDireccion.class
es/batoi/controlador/PrincipalController.class
es/batoi/modelos/ResCurrency.class
es/batoi/modelos/BatoiLogicUbicacion.class
es/batoi/modelos/BatoiLogicCp.class
es/batoi/modelos/BatoiLogicFactura.class
es/batoi/Dao/FacturaDAO.class
es/batoi/Dao/PedidoDAO.class
es/batoi/modelos/ResPartner.class
es/batoi/Connection/HibernateConnection.class
es/batoi/modelos/ReportPaperformat.class
es/batoi/modelos/ResCountry.class
es/batoi/App.class
es/batoi/modelos/IrAttachment.class
es/batoi/Dao/RutaDAO.class
es/batoi/modelos/IrModel.class
es/batoi/modelos/BatoiLogicRuta.class
es/batoi/Dao/PedidoProvDAO.class
es/batoi/modelos/BatoiLogicLinpedido.class
es/batoi/modelos/ResourceCalendar.class
es/batoi/modelos/ResCountryState.class
es/batoi/modelos/ResCompany.class
es/batoi/modelos/BatoiLogicProducto.class
es/batoi/controlador/LoginController$1.class
es/batoi/modelos/BatoiLogicCiudad.class
es/batoi/modelos/BatoiLogicAlbaran.class
es/batoi/Dao/UbicacionDAO.class
es/batoi/modelos/BatoiLogicCliente.class
es/batoi/Dao/LinPedidoDAO.class
es/batoi/modelos/IrUiView.class
es/batoi/modelos/BatoiLogicCamion.class
es/batoi/modelos/ResUsers.class
